%YAML 1.1
%TAG !u! tag:unity3d.com,2011:
--- !u!114 &11400000
MonoBehaviour:
  m_ObjectHideFlags: 0
  m_CorrespondingSourceObject: {fileID: 0}
  m_PrefabInstance: {fileID: 0}
  m_PrefabAsset: {fileID: 0}
  m_GameObject: {fileID: 0}
  m_Enabled: 1
  m_EditorHideFlags: 0
  m_Script: {fileID: 11500000, guid: 254e166643e6a57439bba22b221d002f, type: 3}
  m_Name: NormalWeapon
  m_EditorClassIdentifier: 
  typeName: Normal Weapon
  damage: 40
  durability: 20
  weight: 3
